{
   "products":[
      {
         "label":"Product 1",
         "shipmentType":"Regular"
      },
      {
         "label":"Product 2",
         "shipmentType":"Express"
      },
      {
         "label":"Product 3",
         "shipmentType":"Express"
      },
      {
         "label":"Product 4",
         "shipmentType":"Regular"
      },
      {
         "label":"Product 5",
         "shipmentType":"Regular"
      },
      {
         "label":"Product 6",
         "shipmentType":"Regular"
      },
      {
         "label":"Product 7",
         "shipmentType":"Express"
      },
      {
         "label":"Product 8",
         "shipmentType":"Express"
      },
      {
         "label":"Product 9",
         "shipmentType":"Express"
      },
      {
         "label":"Product 10",
         "shipmentType":"Regular"
      },
      {
         "label":"Product 11",
         "shipmentType":"Express"
      },
      {
         "label":"Product 12",
         "shipmentType":"Express"
      },
      {
         "label":"Product 13",
         "shipmentType":"Express"
      },
      {
         "label":"Product 14",
         "shipmentType":"Regular"
      },
      {
         "label":"Product 15",
         "shipmentType":"Express"
      }
   ],
   "network":[
      {
         "depotFrom":"Main Depot",
         "depotTo":"Depot BELGIUM"
      },
      {
         "depotFrom":"Main Depot",
         "depotTo":"Depot GREECE"
      },
      {
         "depotFrom":"Depot BELGIUM",
         "depotTo":"Site BE1"
      },
      {
         "depotFrom":"Depot BELGIUM",
         "depotTo":"Site BE2"
      },
      {
         "depotFrom":"Depot BELGIUM",
         "depotTo":"Site LUX1"
      },
      {
         "depotFrom":"Depot GREECE",
         "depotTo":"Site GR1"
      },
      {
         "depotFrom":"Depot GREECE",
         "depotTo":"Site GR2"
      }
   ],
   "stocks":[
      {
         "depot":"Main Depot",
         "product":"Product 2",
         "quantity":24,
         "expiry":"2019-12-15"
      },
      {
         "depot":"Main Depot",
         "product":"Product 8",
         "quantity":7,
         "expiry":"2019-12-20"
      },
      {
         "depot":"Site GR1",
         "product":"Product 12",
         "quantity":25,
         "expiry":"2019-12-13"
      },
      {
         "depot":"Site GR1",
         "product":"Product 2",
         "quantity":1,
         "expiry":"2019-12-18"
      },
      {
         "depot":"Site GR1",
         "product":"Product 10",
         "quantity":17,
         "expiry":"2019-12-11"
      },
      {
         "depot":"Site BE2",
         "product":"Product 9",
         "quantity":2,
         "expiry":"2019-12-03"
      },
      {
         "depot":"Site BE2",
         "product":"Product 3",
         "quantity":0,
         "expiry":"2019-12-16"
      },
      {
         "depot":"Site GR2",
         "product":"Product 10",
         "quantity":17,
         "expiry":"2019-12-01"
      },
      {
         "depot":"Site GR2",
         "product":"Product 7",
         "quantity":16,
         "expiry":"2019-11-25"
      }
   ],
   "shipments":[
      {
         "depotFrom":"Main Depot",
         "depotTo":"Depot BELGIUM",
         "departureDate":"2019-12-12",
         "product":"Product 9",
         "quantity":5,
         "expiry":"2019-11-22"
      },
      {
         "depotFrom":"Main Depot",
         "depotTo":"Depot BELGIUM",
         "departureDate":"2019-11-26",
         "product":"Product 15",
         "quantity":13,
         "expiry":"2019-12-06"
      },
      {
         "depotFrom":"Main Depot",
         "depotTo":"Depot GREECE",
         "departureDate":"2019-12-12",
         "product":"Product 6",
         "quantity":27,
         "expiry":"2019-11-26"
      },
      {
         "depotFrom":"Main Depot",
         "depotTo":"Depot GREECE",
         "departureDate":"2019-12-14",
         "product":"Product 4",
         "quantity":5,
         "expiry":"2019-12-16"
      },
      {
         "depotFrom":"Main Depot",
         "depotTo":"Depot GREECE",
         "departureDate":"2019-11-23",
         "product":"Product 1",
         "quantity":36,
         "expiry":"2019-12-12"
      },
      {
         "depotFrom":"Depot BELGIUM",
         "depotTo":"Site BE1",
         "departureDate":"2019-11-29",
         "product":"Product 12",
         "quantity":26,
         "expiry":"2019-11-23"
      },
      {
         "depotFrom":"Depot BELGIUM",
         "depotTo":"Site BE2",
         "departureDate":"2019-12-04",
         "product":"Product 8",
         "quantity":8,
         "expiry":"2019-12-06"
      },
      {
         "depotFrom":"Depot GREECE",
         "depotTo":"Site GR2",
         "departureDate":"2019-12-17",
         "product":"Product 6",
         "quantity":38,
         "expiry":"2019-11-21"
      },
      {
         "depotFrom":"Depot GREECE",
         "depotTo":"Site GR2",
         "departureDate":"2019-12-20",
         "product":"Product 2",
         "quantity":14,
         "expiry":"2019-11-22"
      },
      {
         "depotFrom":"Depot GREECE",
         "depotTo":"Site GR2",
         "departureDate":"2019-11-21",
         "product":"Product 3",
         "quantity":30,
         "expiry":"2019-11-21"
      }
   ]
}